{
    "indexes": [
      {
        "collectionGroup": "JobDetails",
        "queryScope": "COLLECTION",
        "fields": [
          {"fieldPath": "category", "order": "ASCENDING"},
          {"fieldPath": "createdAt", "order": "DESCENDING"}
        ]
      },
      {
        "collectionGroup": "JobDetails",
        "queryScope": "COLLECTION",
        "fields": [
          {"fieldPath": "remoteRegion", "order": "ASCENDING"},
          {"fieldPath": "createdAt", "order": "DESCENDING"}
        ]
      },
      {
        "collectionGroup": "JobDetails",
        "queryScope": "COLLECTION",
        "fields": [
          {"fieldPath": "skills", "arrayConfig": "CONTAINS"},
          {"fieldPath": "createdAt", "order": "DESCENDING"}
        ]
      },
      {
        "collectionGroup": "JobDetails",
        "queryScope": "COLLECTION",
        "fields": [
          {"fieldPath": "workMode", "order": "ASCENDING"},
          {"fieldPath": "createdAt", "order": "DESCENDING"}
        ]
      },
      {
        "collectionGroup": "JobDetails",
        "queryScope": "COLLECTION",
        "fields": [
          {"fieldPath": "publishPlanType", "order": "ASCENDING"},
          {"fieldPath": "createdAt", "order": "DESCENDING"}
        ]
      },
      {
        "collectionGroup": "JobDetails",
        "queryScope": "COLLECTION",
        "fields": [
          {"fieldPath": "skills", "arrayConfig": "CONTAINS"},
          {"fieldPath": "category", "order": "ASCENDING"},
          {"fieldPath": "createdAt", "order": "DESCENDING"}
        ]
      },
      {
        "collectionGroup": "JobDetails",
        "queryScope": "COLLECTION",
        "fields": [
          {"fieldPath": "searchableTokens", "arrayConfig": "CONTAINS"},
          {"fieldPath": "createdAt", "order": "DESCENDING"}
        ]
      },
      {
        "collectionGroup": "ArticlePublished",
        "queryScope": "COLLECTION",
        "fields": [
          {"fieldPath": "aiGeneratedContent.category", "order": "ASCENDING"},
          {"fieldPath": "createdAt", "order": "DESCENDING"}
        ]
      }
    ]
  }